(1590, 637, 490, 343)
[(1, 0, 0, 0), (1, 0, 1, 0), (0, 0, 1, 0), (0, 1, 0, 3), (0, 1, 0, 0), (1, 1, 0, 3), (1, 1, 1, 3), (1, 1, 0, 0), (1, 1, 1, 0), (0, 1, 0, 1), (1, 1, 0, 2), (1, 1, 1, 2), (1, 1, 1, 1), (1, 1, 0, 1), (0, 1, 0, 2), (0, 0, 0, 3), (0, 0, 0, 2), (0, 0, 0, 1)]
--
(1285, 515, 352, 228)
[(0, 0, 1, 0), (0, 1, 0, 0), (0, 1, 0, 1), (1, 0, 0, 0), (1, 0, 0, 2), (1, 0, 0, 1), (1, 1, 1, 3), (1, 1, 1, 0), (1, 1, 1, 2), (1, 1, 1, 1), (1, 1, 0, 3), (1, 1, 0, 0), (1, 1, 0, 2), (1, 1, 0, 1), (0, 0, 0, 3), (0, 0, 0, 2), (0, 0, 0, 1)]
--
(1167, 598, 384, 231)
[(1, 0, 1, 0), (0, 0, 1, 0), (1, 0, 0, 1), (1, 0, 0, 0), (0, 1, 0, 0), (1, 1, 0, 3), (1, 1, 0, 1), (0, 1, 0, 2), (0, 1, 0, 1), (1, 1, 0, 2), (1, 1, 1, 3), (1, 1, 1, 0), (1, 1, 1, 2), (1, 1, 1, 1), (0, 0, 0, 3), (0, 0, 0, 2), (0, 0, 0, 1)]
--
(878, 454, 294, 194)
[(1, 0, 1, 0), (0, 0, 1, 0), (0, 1, 0, 0), (1, 1, 0, 3), (1, 1, 0, 2), (0, 1, 0, 1), (1, 0, 0, 1), (1, 0, 0, 0), (1, 0, 0, 2), (1, 1, 1, 3), (1, 1, 1, 0), (1, 1, 1, 1), (1, 1, 1, 2), (0, 0, 0, 3), (0, 0, 0, 2), (0, 0, 0, 1)]
--
(728, 256, 212, 169)
[(0, 1, 0, 0), (1, 1, 0, 3), (0, 0, 1, 0), (1, 0, 1, 0), (1, 0, 0, 2), (1, 0, 0, 1), (1, 1, 1, 1), (1, 1, 1, 2), (1, 0, 0, 0), (1, 1, 1, 0), (1, 1, 1, 3), (1, 0, 0, 3), (0, 0, 0, 3), (0, 0, 0, 2), (0, 0, 0, 1)]
--
(1466, 815, 490, 289)
[(1, 0, 0, 0), (1, 0, 1, 0), (1, 0, 1, 1), (0, 0, 1, 1), (0, 0, 1, 0), (0, 1, 0, 0), (1, 1, 0, 2), (1, 1, 0, 0), (0, 1, 0, 2), (0, 1, 0, 1), (1, 1, 0, 1), (1, 1, 1, 3), (1, 1, 1, 0), (1, 1, 1, 2), (1, 1, 1, 1), (0, 0, 0, 3), (0, 0, 0, 2), (0, 0, 0, 1)]
--
(1157, 644, 352, 227)
[(1, 0, 1, 1), (1, 0, 0, 0), (1, 0, 0, 1), (0, 1, 0, 0), (0, 1, 0, 1), (0, 0, 1, 0), (0, 0, 1, 1), (1, 1, 0, 2), (1, 1, 0, 0), (1, 1, 1, 3), (1, 1, 1, 0), (1, 1, 0, 1), (1, 1, 1, 2), (1, 1, 1, 1), (0, 0, 0, 3), (0, 0, 0, 2), (0, 0, 0, 1)]
--
(892, 468, 282, 178)
[(1, 0, 1, 2), (0, 1, 0, 0), (1, 0, 0, 0), (1, 0, 0, 2), (1, 0, 0, 1), (0, 0, 1, 0), (1, 1, 0, 0), (1, 1, 0, 1), (0, 0, 1, 1), (1, 1, 1, 3), (1, 1, 1, 0), (1, 1, 1, 1), (1, 1, 1, 2), (0, 0, 0, 3), (0, 0, 0, 2), (0, 0, 0, 1)]
--
(1104, 695, 340, 241)
[(1, 0, 0, 0), (1, 0, 0, 1), (1, 0, 1, 2), (1, 1, 0, 0), (0, 0, 1, 0), (0, 1, 0, 1), (0, 1, 0, 0), (1, 0, 1, 1), (1, 1, 0, 1), (0, 0, 1, 1), (1, 1, 1, 3), (1, 1, 1, 0), (1, 1, 1, 2), (1, 1, 1, 1), (0, 0, 0, 3), (0, 0, 0, 2), (0, 0, 0, 1)]
--
(728, 281, 212, 144)
[(0, 0, 1, 0), (1, 0, 1, 1), (0, 1, 0, 0), (1, 1, 0, 2), (1, 0, 0, 0), (1, 0, 0, 3), (1, 1, 1, 0), (1, 1, 1, 3), (1, 0, 0, 2), (1, 1, 1, 1), (1, 1, 1, 2), (1, 0, 0, 1), (0, 0, 0, 3), (0, 0, 0, 2), (0, 0, 0, 1)]
--
(886, 481, 278, 175)
[(0, 1, 0, 0), (1, 1, 0, 1), (1, 0, 1, 2), (0, 0, 1, 0), (0, 0, 1, 1), (1, 0, 1, 1), (1, 0, 0, 0), (1, 0, 0, 2), (1, 0, 0, 1), (1, 1, 1, 0), (1, 1, 1, 3), (1, 1, 1, 1), (1, 1, 1, 2), (0, 0, 0, 3), (0, 0, 0, 2), (0, 0, 0, 1)]
--
(1108, 681, 384, 207)
[(1, 1, 1, 3), (0, 1, 0, 0), (0, 0, 1, 0), (0, 0, 1, 1), (0, 1, 0, 1), (1, 1, 0, 1), (1, 0, 1, 1), (1, 1, 0, 3), (1, 0, 1, 3), (1, 1, 0, 2), (1, 0, 1, 2), (1, 0, 0, 0), (1, 0, 0, 2), (1, 0, 0, 1), (0, 0, 0, 3), (0, 0, 0, 2), (0, 0, 0, 1)]
--
(1160, 630, 396, 194)
[(1, 0, 1, 1), (0, 0, 1, 0), (1, 1, 1, 3), (1, 1, 1, 1), (1, 1, 1, 2), (1, 0, 0, 0), (1, 0, 0, 2), (1, 0, 0, 1), (0, 1, 0, 0), (1, 1, 0, 3), (1, 1, 0, 1), (0, 1, 0, 2), (0, 1, 0, 1), (1, 1, 0, 2), (0, 0, 0, 3), (0, 0, 0, 2), (0, 0, 0, 1)]
--
(1383, 935, 482, 260)
[(1, 0, 1, 1), (1, 1, 1, 3), (1, 0, 1, 2), (1, 1, 1, 2), (0, 0, 1, 1), (0, 0, 1, 0), (0, 1, 0, 0), (1, 0, 0, 0), (1, 1, 0, 3), (1, 0, 0, 2), (1, 1, 0, 1), (0, 1, 0, 2), (0, 1, 0, 1), (1, 1, 0, 2), (1, 0, 0, 1), (0, 0, 0, 3), (0, 0, 0, 2), (0, 0, 0, 1)]
--
(1074, 748, 354, 204)
[(0, 1, 0, 0), (1, 0, 1, 1), (1, 1, 0, 2), (1, 0, 1, 2), (1, 1, 0, 1), (0, 0, 1, 0), (0, 0, 1, 1), (0, 1, 0, 1), (1, 0, 0, 0), (1, 1, 1, 3), (1, 0, 0, 2), (1, 1, 1, 1), (1, 1, 1, 2), (1, 0, 0, 1), (0, 0, 0, 3), (0, 0, 0, 2), (0, 0, 0, 1)]
--
(1038, 381, 258, 143)
[(0, 0, 1, 3), (0, 0, 1, 0), (0, 0, 1, 1), (0, 0, 1, 2), (0, 1, 0, 0), (0, 1, 0, 2), (1, 0, 0, 0), (1, 1, 0, 3), (1, 0, 0, 2), (1, 1, 0, 1), (1, 1, 0, 2), (1, 0, 0, 1), (0, 1, 0, 1), (0, 0, 0, 3), (0, 0, 0, 2), (0, 0, 0, 1)]
--
(554, 513, 198, 100)
[(1, 0, 0, 0), (0, 1, 0, 0), (0, 1, 1, 2), (1, 0, 1, 1), (1, 1, 2, 3), (1, 1, 0, 0), (1, 1, 1, 0), (0, 0, 1, 0), (1, 1, 1, 3), (0, 0, 1, 3), (1, 1, 1, 1), (0, 0, 1, 1), (0, 0, 1, 2), (1, 1, 1, 2), (0, 0, 0, 1)]
--
(566, 521, 186, 92)
[(1, 0, 0, 0), (0, 1, 0, 0), (0, 1, 1, 2), (0, 1, 1, 1), (1, 1, 2, 3), (1, 1, 0, 0), (1, 1, 1, 0), (0, 0, 1, 0), (1, 1, 1, 3), (0, 0, 1, 3), (1, 1, 1, 1), (0, 0, 1, 1), (0, 0, 1, 2), (1, 1, 1, 2), (0, 0, 0, 1)]
--
(566, 500, 186, 113)
[(1, 0, 0, 0), (0, 1, 0, 0), (0, 1, 1, 3), (0, 1, 1, 2), (1, 1, 2, 3), (1, 1, 0, 0), (1, 1, 1, 0), (0, 0, 1, 0), (1, 1, 1, 1), (0, 0, 1, 1), (1, 1, 1, 3), (0, 0, 1, 3), (0, 0, 1, 2), (1, 1, 1, 2), (0, 0, 0, 1)]
--
(554, 464, 198, 149)
[(0, 1, 0, 0), (1, 0, 0, 0), (1, 0, 1, 0), (0, 1, 1, 3), (1, 1, 2, 3), (1, 1, 0, 0), (0, 0, 1, 2), (1, 1, 1, 2), (1, 1, 1, 1), (0, 0, 1, 1), (1, 1, 1, 3), (0, 0, 1, 3), (1, 1, 1, 0), (0, 0, 1, 0), (0, 0, 0, 1)]
--
(729, 643, 295, 153)
[(1, 0, 0, 0), (0, 1, 0, 0), (1, 1, 2, 3), (0, 1, 1, 0), (1, 1, 1, 3), (0, 0, 1, 3), (1, 1, 1, 0), (0, 0, 1, 0), (0, 1, 1, 3), (0, 1, 1, 2), (0, 1, 1, 1), (0, 0, 1, 2), (1, 1, 1, 2), (1, 1, 1, 1), (0, 0, 1, 1), (0, 0, 0, 1)]
--
(551, 498, 150, 166)
[(0, 1, 0, 0), (1, 0, 0, 0), (1, 0, 2, 3), (1, 0, 1, 0), (1, 1, 1, 0), (1, 1, 2, 3), (1, 1, 0, 0), (1, 1, 1, 1), (1, 0, 1, 1), (0, 0, 1, 3), (0, 0, 1, 0), (0, 0, 2, 3), (0, 0, 0, 1), (0, 0, 1, 2), (0, 0, 1, 1)]
--
(359, 450, 122, 70)
[(1, 0, 0, 0), (1, 1, 1, 0), (0, 1, 1, 2), (1, 1, 2, 3), (1, 1, 0, 0), (0, 1, 0, 0), (0, 1, 2, 3), (0, 1, 1, 1), (1, 1, 1, 1), (0, 0, 1, 3), (0, 0, 1, 0), (0, 0, 0, 1), (0, 0, 1, 2), (0, 0, 1, 1)]
--
(351, 418, 130, 102)
[(1, 0, 0, 0), (1, 1, 1, 0), (0, 1, 1, 3), (0, 1, 0, 0), (0, 1, 2, 3), (1, 1, 2, 3), (1, 1, 0, 0), (0, 1, 1, 2), (1, 1, 1, 1), (0, 0, 1, 3), (0, 0, 1, 0), (0, 0, 1, 1), (0, 0, 1, 2), (0, 0, 0, 1)]
--
(289, 283, 82, 61)
[(0, 1, 0, 0), (1, 0, 0, 0), (1, 0, 1, 1), (0, 1, 1, 1), (1, 1, 2, 3), (1, 1, 1, 0), (1, 1, 1, 1), (0, 0, 1, 0), (0, 0, 2, 3), (0, 0, 1, 3), (0, 0, 1, 2), (0, 0, 0, 1), (0, 0, 1, 1)]
--
(216, 144, 54, 81)
[(0, 1, 0, 0), (1, 0, 0, 0), (1, 1, 1, 0), (1, 1, 2, 3), (1, 0, 2, 3), (0, 1, 1, 0), (0, 0, 1, 1), (0, 0, 0, 1), (0, 0, 1, 2), (0, 0, 1, 0), (0, 0, 2, 3), (0, 0, 1, 3)]
--
(353, 454, 148, 46)
[(0, 1, 1, 2), (0, 1, 0, 0), (1, 0, 0, 0), (1, 0, 1, 0), (1, 0, 1, 1), (1, 1, 2, 3), (1, 1, 1, 0), (1, 1, 1, 1), (1, 1, 1, 2), (0, 0, 1, 3), (0, 0, 1, 0), (0, 0, 1, 1), (0, 0, 1, 2), (0, 0, 0, 1)]
--
(346, 437, 155, 63)
[(1, 0, 0, 0), (1, 0, 1, 0), (0, 1, 0, 0), (0, 1, 1, 2), (0, 1, 1, 3), (1, 1, 2, 3), (1, 1, 1, 1), (1, 1, 1, 2), (1, 1, 1, 0), (0, 0, 1, 1), (0, 0, 1, 0), (0, 0, 1, 3), (0, 0, 1, 2), (0, 0, 0, 1)]
--
(329, 499, 125, 48)
[(1, 0, 0, 0), (1, 1, 2, 3), (1, 0, 1, 0), (1, 1, 1, 0), (0, 1, 1, 2), (0, 1, 1, 1), (0, 1, 0, 0), (1, 1, 1, 1), (1, 0, 1, 1), (0, 0, 1, 0), (0, 0, 1, 3), (0, 0, 1, 1), (0, 0, 1, 2), (0, 0, 0, 1)]
--
(355, 470, 139, 37)
[(1, 0, 1, 1), (1, 0, 0, 0), (0, 1, 0, 0), (0, 1, 1, 1), (0, 1, 1, 2), (1, 1, 1, 0), (1, 1, 2, 3), (1, 1, 1, 2), (0, 0, 1, 0), (1, 1, 1, 1), (0, 0, 1, 3), (0, 0, 1, 2), (0, 0, 1, 1), (0, 0, 0, 1)]
--
(555, 568, 146, 96)
[(1, 0, 0, 0), (0, 1, 0, 0), (0, 1, 2, 3), (1, 1, 2, 3), (1, 1, 0, 0), (0, 1, 1, 2), (1, 1, 1, 1), (1, 1, 1, 2), (0, 1, 1, 1), (0, 0, 1, 0), (0, 0, 1, 3), (0, 0, 2, 3), (0, 0, 0, 1), (0, 0, 1, 1), (0, 0, 1, 2)]
--
(416, 405, 108, 72)
[(1, 0, 0, 0), (0, 1, 0, 0), (0, 1, 1, 2), (1, 0, 1, 1), (1, 1, 2, 3), (1, 1, 0, 0), (1, 1, 1, 1), (1, 1, 1, 2), (0, 0, 1, 0), (0, 0, 1, 3), (0, 0, 2, 3), (0, 0, 0, 1), (0, 0, 1, 1), (0, 0, 1, 2)]
--
(504, 618, 156, 87)
[(1, 0, 0, 0), (1, 0, 1, 1), (1, 1, 2, 3), (0, 1, 1, 1), (0, 1, 0, 0), (1, 1, 1, 2), (1, 1, 1, 1), (0, 1, 1, 2), (1, 0, 1, 2), (0, 0, 1, 3), (0, 0, 1, 0), (0, 0, 2, 3), (0, 0, 0, 1), (0, 0, 1, 2), (0, 0, 1, 1)]
--
(579, 519, 174, 93)
[(1, 0, 0, 0), (0, 1, 0, 0), (0, 1, 0, -1), (1, 0, 0, -1), (1, 1, 1, 0), (1, 1, -1, -3), (0, 0, 1, 3), (0, 0, 1, 0), (0, 0, 1, 2), (0, 0, 1, 1), (1, 1, 0, -3), (1, 1, 0, 0), (1, 1, 0, -2), (1, 1, 0, -1), (0, 0, 0, 1)]
--
(459, 354, 102, 86)
[(1, 0, 1, 0), (1, 0, 0, 0), (1, 0, 2, 3), (0, 1, 0, 0), (0, 1, 2, 3), (0, 1, 1, 2), (0, 1, 1, 1), (1, 0, 1, 1), (0, 0, 1, 0), (0, 0, 1, 3), (0, 0, 2, 3), (0, 0, 0, 1), (0, 0, 1, 2), (0, 0, 1, 1)]
--
(461, 375, 100, 65)
[(1, 0, 2, 3), (1, 0, 0, 0), (0, 1, 0, 0), (0, 1, 1, 0), (1, 0, 1, 1), (0, 1, 0, -1), (0, 1, 1, 1), (1, 0, 1, 2), (0, 0, 1, 3), (0, 0, 1, 0), (0, 0, 2, 3), (0, 0, 0, 1), (0, 0, 1, 2), (0, 0, 1, 1)]
--
(273, 479, 112, 137)
[(0, 1, 0, 0), (1, 0, 1, 0), (1, 0, 0, 0), (1, 1, 2, 3), (1, 1, 1, 1), (0, 0, 0, 1), (0, 0, 1, 1), (0, 1, 1, 2), (0, 1, 2, 3), (0, 1, 1, 3), (1, 2, 2, 3), (0, 0, 1, 0), (1, 1, 0, 0), (1, 1, 1, 0)]
--
(289, 483, 144, 85)
[(1, 0, 1, 0), (1, 1, 2, 3), (0, 1, 2, 3), (1, 2, 2, 3), (0, 0, 1, 0), (1, 1, 1, 0), (0, 1, 0, 0), (1, 0, 0, 0), (1, 1, 1, 1), (0, 0, 1, 1), (0, 1, 1, 1), (0, 0, 0, 1), (0, 1, 1, 2), (0, 1, 1, 3)]
--
(321, 473, 160, 47)
[(1, 1, 0, 0), (0, 1, 0, 0), (1, 2, 1, 3), (0, 0, 1, 0), (0, 1, 0, 1), (1, 0, 0, 0), (1, 2, 2, 3), (1, 1, 1, 1), (0, 1, 1, 2), (1, 1, 1, 0), (0, 1, 1, 3), (0, 1, 1, 1), (1, 1, 1, 2), (0, 0, 0, 1)]
--
(291, 526, 134, 50)
[(1, 2, 2, 3), (0, 1, 1, 3), (0, 0, 1, 0), (1, 1, 0, 0), (0, 1, 0, 0), (1, 0, 1, 0), (1, 0, 0, 0), (0, 1, 0, 1), (0, 0, 1, 1), (1, 1, 1, 2), (0, 1, 1, 2), (1, 1, 1, 0), (1, 1, 1, 1), (0, 0, 0, 1)]
--
(339, 500, 133, 29)
[(1, 1, 0, 0), (0, 1, 0, 0), (0, 1, 0, 1), (0, 0, 1, 0), (1, 2, 2, 3), (0, 0, 1, 1), (1, 0, 0, 0), (1, 1, 1, 0), (0, 1, 1, 3), (1, 1, 1, 2), (1, 1, 1, 1), (0, 1, 1, 2), (0, 1, 1, 1), (0, 0, 0, 1)]
--
(345, 747, 180, 93)
[(1, 0, 0, 0), (0, 1, 1, 3), (1, 2, 2, 3), (1, 1, 2, 3), (1, 2, 1, 3), (0, 0, 1, 0), (1, 1, 0, 0), (0, 1, 0, 0), (1, 0, 1, 0), (0, 1, 0, 1), (0, 0, 1, 1), (1, 1, 1, 1), (0, 0, 0, 1), (1, 1, 1, 2), (0, 1, 1, 2)]
--
(305, 543, 128, 25)
[(1, 2, 1, 3), (1, 1, 0, 0), (1, 0, 0, 0), (1, 2, 2, 3), (0, 0, 1, 0), (0, 1, 0, 0), (1, 1, 1, 1), (0, 1, 0, 1), (0, 0, 1, 1), (1, 1, 1, 2), (0, 1, 1, 3), (0, 0, 0, 1), (0, 1, 1, 2), (0, 1, 1, 1)]
--
(325, 477, 172, 27)
[(1, 1, 0, 0), (1, 2, 1, 3), (0, 0, 1, 0), (1, 0, 0, 0), (0, 1, 0, 0), (1, 1, 1, 0), (0, 1, 1, 3), (0, 1, 1, 1), (1, 1, 1, 2), (0, 1, 0, 2), (0, 1, 0, 1), (1, 1, 1, 1), (0, 1, 1, 2), (0, 0, 0, 1)]
--
(436, 721, 184, 24)
[(1, 0, 1, 0), (0, 1, 1, 3), (1, 1, 1, 0), (0, 0, 1, 0), (1, 1, 0, 0), (1, 1, 1, 1), (0, 0, 1, 1), (1, 0, 0, 0), (0, 1, 0, 0), (0, 1, 1, 2), (1, 0, 0, -2), (0, 1, 0, 2), (0, 1, 0, 1), (1, 0, 0, -1), (0, 0, 0, 1)]
--
(485, 639, 216, 25)
[(1, 1, 1, 1), (1, 2, 1, 3), (1, 1, 0, 0), (1, 0, 0, 0), (1, 1, 0, 1), (0, 0, 1, 0), (0, 1, 0, 0), (0, 2, 1, 3), (0, 1, 1, 3), (0, 1, 1, 1), (0, 0, 1, 1), (0, 1, 0, 2), (0, 1, 0, 1), (0, 0, 0, 1), (0, 1, 1, 2)]
--
(449, 731, 172, 13)
[(1, 2, 1, 3), (1, 0, 0, 0), (1, 1, 0, 0), (1, 1, 1, 2), (1, 1, 1, 1), (0, 0, 1, 0), (1, 1, 0, 1), (0, 1, 0, 0), (0, 1, 1, 3), (0, 1, 1, 1), (0, 1, 0, 2), (0, 0, 1, 1), (0, 1, 0, 1), (0, 1, 1, 2), (0, 0, 0, 1)]
--
(462, 687, 203, 13)
[(1, 1, 1, 2), (1, 0, 0, 0), (1, 2, 1, 3), (0, 0, 1, 0), (1, 1, 0, 0), (0, 1, 0, 0), (0, 1, 1, 3), (1, 1, 0, 2), (0, 0, 1, 1), (1, 1, 0, 1), (0, 1, 1, 1), (0, 1, 0, 2), (0, 1, 0, 1), (0, 1, 1, 2), (0, 0, 0, 1)]
--
(493, 664, 188, 20)
[(1, 1, 1, 1), (1, 1, 0, 1), (1, 2, 1, 3), (1, 0, 0, 0), (1, 1, 1, 2), (0, 0, 1, 0), (0, 1, 0, 0), (0, 1, 1, 3), (0, 2, 1, 3), (0, 1, 1, 1), (0, 1, 0, 2), (0, 0, 1, 1), (0, 0, 0, 1), (0, 1, 0, 1), (0, 1, 1, 2)]
--
(770, 1252, 346, 12)
[(0, 1, 0, 0), (0, 0, 1, 0), (1, 1, 0, 2), (1, 0, 1, 2), (0, 0, 1, 1), (1, 0, 1, 1), (0, 1, 0, 1), (1, 1, 0, 1), (1, 0, 0, 0), (1, 1, 1, 3), (2, 1, 1, 3), (1, 1, 1, 1), (0, 1, 1, 1), (1, 0, 0, 2), (1, 0, 0, 1), (0, 0, 0, 1), (1, 1, 1, 2)]
--
(429, 831, 96, 9)
[(1, 1, 1, 3), (2, 1, 1, 3), (0, 1, -1, 0), (0, 1, 0, 0), (0, 0, 1, 0), (1, 0, 0, 0), (1, 0, 0, 1), (0, 0, 0, 1), (0, 0, 1, 1), (1, 0, 1, 1), (0, 1, 0, 1), (1, 1, 0, 1), (1, 1, 1, 2), (1, 1, 0, 2), (1, 0, 1, 2)]
--
(425, 835, 100, 5)
[(1, 1, 1, 3), (0, 1, 1, 1), (1, 0, 0, 0), (1, 0, 1, 1), (0, 1, 0, 0), (1, 1, 0, 1), (0, 0, 1, 0), (1, 1, 0, 2), (1, 0, 1, 2), (0, 1, 1, 2), (0, 0, 1, 1), (0, 1, 0, 1), (1, 0, 0, 1), (0, 0, 0, 1), (1, 1, 1, 2)]
--
